------------------------------------------------------------------------
r935452 | scripty | 2009-03-05 07:53:14 +0000 (Thu, 05 Mar 2009) | 1 line

SVN_SILENT made messages (.desktop file)
------------------------------------------------------------------------
r937031 | lueck | 2009-03-08 21:48:04 +0000 (Sun, 08 Mar 2009) | 1 line

doc backport from trunk
------------------------------------------------------------------------
r943684 | scripty | 2009-03-24 08:21:29 +0000 (Tue, 24 Mar 2009) | 1 line

SVN_SILENT made messages (.desktop file)
------------------------------------------------------------------------
