2005-09-25 16:00 +0000 [r463863]  thiago

	* branches/KDE/3.4/kdetoys/kweather/weather_stations.desktop:
	  Backporting the spelling fix from the 3.5 branch.

2005-10-05 13:48 +0000 [r467524]  coolo

	* branches/KDE/3.4/kdetoys/kdetoys.lsm: 3.4.3

